%YAML 1.1
%TAG !u! tag:unity3d.com,2011:
--- !u!114 &-393606035606913043
MonoBehaviour:
  m_ObjectHideFlags: 11
  m_CorrespondingSourceObject: {fileID: 0}
  m_PrefabInstance: {fileID: 0}
  m_PrefabAsset: {fileID: 0}
  m_GameObject: {fileID: 0}
  m_Enabled: 1
  m_EditorHideFlags: 0
  m_Script: {fileID: 11500000, guid: d0353a89b1f911e48b9e16bdc9f2e058, type: 3}
  m_Name: 
  m_EditorClassIdentifier: 
  version: 7
--- !u!21 &2100000
Material:
  serializedVersion: 8
  m_ObjectHideFlags: 0
  m_CorrespondingSourceObject: {fileID: 0}
  m_PrefabInstance: {fileID: 0}
  m_PrefabAsset: {fileID: 0}
  m_Name: AlphaByDepthMat
  m_Shader: {fileID: -6465566751694194690, guid: 1641f01cf41ef3848adf609c7a7f73e4, type: 3}
<<<<<<< HEAD
=======
  m_Parent: {fileID: 0}
  m_ModifiedSerializedProperties: 0
>>>>>>> 11da8af523b778b2b7f0faacfdf5c210179bc176
  m_ValidKeywords: []
  m_InvalidKeywords: []
  m_LightmapFlags: 4
  m_EnableInstancingVariants: 0
  m_DoubleSidedGI: 0
  m_CustomRenderQueue: -1
  stringTagMap: {}
  disabledShaderPasses: []
  m_LockedProperties: 
  m_SavedProperties:
    serializedVersion: 3
    m_TexEnvs:
    - unity_Lightmaps:
        m_Texture: {fileID: 0}
        m_Scale: {x: 1, y: 1}
        m_Offset: {x: 0, y: 0}
    - unity_LightmapsInd:
        m_Texture: {fileID: 0}
        m_Scale: {x: 1, y: 1}
        m_Offset: {x: 0, y: 0}
    - unity_ShadowMasks:
        m_Texture: {fileID: 0}
        m_Scale: {x: 1, y: 1}
        m_Offset: {x: 0, y: 0}
    m_Ints: []
    m_Floats:
    - Vector1_39ab932da4844e72b1ab684176c51159: 0
    - Vector1_3c17e48f09364bd3a405e5e52b4f29d1: 20000
    - Vector1_49115c85f4c644b3b56c249dffe09da6: 0.8
    - Vector1_62e1ba30a7604ec98c151a24e7f2f63b: 500
    - Vector1_95c9802f83e443eabe7544d965a2b25c: 0.51
    - Vector1_d4adbae12b854f45aa247967a05331fa: 3000
    - Vector1_d53cc0f188424af284dbc1767b5d2bb8: 2.506628
    - Vector1_f682401aa7404e52b397802e1cb64458: 0.05
    - _QueueControl: 0
    - _QueueOffset: 0
    m_Colors: []
  m_BuildTextureStacks: []
--- !u!114 &4956576546934858882
MonoBehaviour:
  m_ObjectHideFlags: 11
  m_CorrespondingSourceObject: {fileID: 0}
  m_PrefabInstance: {fileID: 0}
  m_PrefabAsset: {fileID: 0}
  m_GameObject: {fileID: 0}
  m_Enabled: 1
  m_EditorHideFlags: 0
  m_Script: {fileID: 11500000, guid: d0353a89b1f911e48b9e16bdc9f2e058, type: 3}
  m_Name: 
  m_EditorClassIdentifier: 
  version: 5
