{
    "epsg": 25833, 
    "filename": "cityModel_395000_5819000.sfb", 
    "offset_x": -400341, 
    "offset_y": -5812901, 
    "size_x": 1038.083964999998, 
    "size_y": 764.7397369993851, 
    "type": "cityModel", 
    "x_sw": 394979.961048, 
    "y_sw": 5818966.023168
}