{
    "epsg": 25833, 
    "filename": "cityModel_396000_5816000.sfb", 
    "offset_x": -400341, 
    "offset_y": -5812901, 
    "size_x": 675.0701409999747, 
    "size_y": 755.8648389996961, 
    "type": "cityModel", 
    "x_sw": 396317.088911, 
    "y_sw": 5816248.920489
}