{
    "epsg": 25833, 
    "filename": "cityModel_399000_5818000.sfb", 
    "offset_x": -400341, 
    "offset_y": -5812901, 
    "size_x": 540.2295109999832, 
    "size_y": 1026.7379170004278, 
    "type": "cityModel", 
    "x_sw": 398983.174122, 
    "y_sw": 5817975.712517
}