{
    "epsg": 25833, 
    "filename": "cityModel_399000_5819000.sfb", 
    "offset_x": -400341, 
    "offset_y": -5812901, 
    "size_x": 521.9230489999754, 
    "size_y": 647.5008680000901, 
    "type": "cityModel", 
    "x_sw": 399014.934575, 
    "y_sw": 5818994.379876
}