{
    "epsg": 25833, 
    "filename": "dom_398000_5819500_500.sfb", 
    "offset_x": -400341, 
    "offset_y": -5812901, 
    "size_x": 500, 
    "size_y": 500, 
    "type": "dom", 
    "x_sw": 398000, 
    "y_sw": 5819500
}