{
    "epsg": 25833, 
    "filename": "dom_397500_5819000_500.sfb", 
    "offset_x": -400341, 
    "offset_y": -5812901, 
    "size_x": 500, 
    "size_y": 500, 
    "type": "dom", 
    "x_sw": 397500, 
    "y_sw": 5819000
}